marvelApi\model\client\api\DocspublicApi$87.class
marvelApi\model\client\api\DocspublicApi$14.class
marvelApi\model\client\model\CharacterSummary.class
marvelApi\model\client\api\DocspublicApi$34.class
marvelApi\model\client\api\DocspublicApi$54.class
marvelApi\model\client\auth\HttpBasicAuth.class
marvelApi\model\client\api\DocspublicApi$47.class
marvelApi\model\client\api\DocspublicApi$67.class
marvelApi\model\client\JSON$ByteArrayAdapter.class
marvelApi\model\client\api\DocspublicApi$105.class
marvelApi\model\client\api\DocspublicApi$27.class
marvelApi\model\client\model\StorySummary.class
marvelApi\model\client\ApiClient$2.class
marvelApi\model\client\ProgressRequestBody$ProgressRequestListener.class
marvelApi\model\client\model\Image.class
marvelApi\model\client\api\DocspublicApi$112.class
marvelApi\model\client\model\StoryList.class
marvelApi\model\client\model\ComicDate.class
marvelApi\model\client\api\DocspublicApi$94.class
marvelApi\model\client\model\Creator.class
marvelApi\model\client\api\DocspublicApi$74.class
marvelApi\model\client\model\Url.class
marvelApi\model\client\api\DocspublicApi$1.class
marvelApi\model\client\ApiException.class
marvelApi\model\client\GzipRequestInterceptor.class
marvelApi\model\client\model\SeriesDataWrapper.class
marvelApi\model\client\api\DocspublicApi$82.class
marvelApi\model\client\api\DocspublicApi$42.class
marvelApi\model\client\api\DocspublicApi$19.class
marvelApi\model\client\api\DocspublicApi$59.class
marvelApi\model\client\api\DocspublicApi$7.class
marvelApi\model\client\model\CharacterList.class
marvelApi\model\client\api\DocspublicApi$100.class
marvelApi\model\client\api\DocspublicApi$106.class
marvelApi\model\client\api\DocspublicApi$75.class
marvelApi\model\client\JSON$DateTypeAdapter.class
springboot\CustomErrorController.class
marvelApi\model\client\api\DocspublicApi$35.class
marvelApi\model\client\model\ComicSummary.class
marvelApi\model\client\model\CreatorSummary.class
marvelApi\model\client\model\SeriesList.class
marvelApi\model\client\api\DocspublicApi$13.class
marvelApi\model\client\ProgressResponseBody$1.class
marvelApi\model\client\api\DocspublicApi$6.class
marvelApi\model\client\api\DocspublicApi$88.class
marvelApi\model\client\api\DocspublicApi$93.class
marvelApi\model\client\api\DocspublicApi$48.class
marvelApi\model\client\api\DocspublicApi$53.class
marvelApi\model\client\model\CharacterDataContainer.class
marvelApi\model\client\api\DocspublicApi$99.class
marvelApi\model\client\ProgressResponseBody.class
marvelApi\model\client\api\DocspublicApi$117.class
marvelApi\model\client\api\DocspublicApi$41.class
marvelApi\model\client\api\DocspublicApi$81.class
marvelApi\model\client\api\DocspublicApi$90.class
marvelApi\model\client\api\DocspublicApi$111.class
marvelApi\model\client\api\DocspublicApi$8.class
marvelApi\model\client\api\DocspublicApi$10.class
marvelApi\model\client\api\DocspublicApi$30.class
marvelApi\model\client\api\DocspublicApi$40.class
marvelApi\model\client\api\DocspublicApi$60.class
marvelApi\model\client\api\DocspublicApi.class
marvelApi\model\client\JSON$1.class
marvelApi\model\client\ApiClient.class
marvelApi\model\client\api\DocspublicApi$78.class
marvelApi\model\client\ProgressRequestBody.class
springboot\Controller.class
marvelApi\model\client\model\CharacterDataWrapper.class
marvelApi\model\client\ApiResponse.class
marvelApi\model\client\GzipRequestInterceptor$1.class
marvelApi\model\client\api\DocspublicApi$83.class
marvelApi\model\client\api\DocspublicApi$58.class
marvelApi\model\client\api\DocspublicApi$63.class
marvelApi\model\client\api\DocspublicApi$86.class
marvelApi\model\client\api\DocspublicApi$26.class
marvelApi\model\client\api\DocspublicApi$107.class
marvelApi\model\client\api\DocspublicApi$62.class
marvelApi\model\client\model\ComicList.class
marvelApi\model\client\JSON$LocalDateTypeAdapter.class
marvelApi\model\client\api\DocspublicApi$113.class
springboot\model\HeroList.class
marvelApi\model\client\api\DocspublicApi$29.class
marvelApi\model\client\auth\Authentication.class
marvelApi\model\client\GzipRequestInterceptor$2.class
marvelApi\model\client\ProgressResponseBody$ProgressListener.class
marvelApi\model\client\api\DocspublicApi$55.class
marvelApi\model\client\auth\OAuthFlow.class
marvelApi\model\client\model\Event.class
marvelApi\model\client\api\DocspublicApi$32.class
marvelApi\model\client\model\EventDataContainer.class
marvelApi\model\client\api\DocspublicApi$85.class
springboot\NotFoundException.class
marvelApi\model\client\api\DocspublicApi$109.class
marvelApi\model\client\api\DocspublicApi$33.class
marvelApi\model\client\JSON.class
marvelApi\model\client\api\DocspublicApi$28.class
springboot\model\Hero.class
marvelApi\model\client\api\DocspublicApi$114.class
springboot\UserController.class
marvelApi\model\client\model\StoryDataWrapper.class
marvelApi\model\client\api\DocspublicApi$84.class
marvelApi\model\client\api\DocspublicApi$56.class
marvelApi\model\client\model\EventList.class
marvelApi\model\client\api\DocspublicApi$79.class
marvelApi\model\client\api\DocspublicApi$9.class
marvelApi\model\client\api\DocspublicApi$61.class
marvelApi\model\client\api\DocspublicApi$24.class
marvelApi\MarvelClient.class
marvelApi\model\client\api\DocspublicApi$97.class
marvelApi\model\client\api\DocspublicApi$77.class
marvelApi\model\client\auth\ApiKeyAuth.class
marvelApi\model\client\api\DocspublicApi$108.class
marvelApi\model\client\api\DocspublicApi$57.class
marvelApi\model\client\api\DocspublicApi$44.class
marvelApi\model\client\api\DocspublicApi$64.class
marvelApi\model\client\api\DocspublicApi$17.class
marvelApi\model\client\api\DocspublicApi$37.class
marvelApi\model\client\model\SeriesDataContainer.class
marvelApi\model\client\model\SeriesSummary.class
marvelApi\model\client\api\DocspublicApi$11.class
marvelApi\model\client\api\DocspublicApi$115.class
marvelApi\model\client\JSON$SqlDateTypeAdapter.class
marvelApi\model\client\model\TextObject.class
marvelApi\model\client\api\DocspublicApi$51.class
marvelApi\model\client\api\DocspublicApi$31.class
marvelApi\model\client\api\DocspublicApi$4.class
marvelApi\model\client\Pair.class
marvelApi\model\client\api\DocspublicApi$71.class
marvelApi\model\client\api\DocspublicApi$91.class
marvelApi\model\client\api\DocspublicApi$49.class
marvelApi\model\client\model\CreatorDataContainer.class
marvelApi\model\client\api\DocspublicApi$52.class
marvelApi\model\client\api\DocspublicApi$92.class
marvelApi\model\client\api\DocspublicApi$65.class
marvelApi\model\client\api\DocspublicApi$116.class
marvelApi\model\client\api\DocspublicApi$12.class
marvelApi\model\client\api\DocspublicApi$25.class
marvelApi\model\client\ApiCallback.class
marvelApi\model\client\model\Character.class
marvelApi\model\client\model\CreatorDataWrapper.class
marvelApi\model\client\model\Series.class
marvelApi\model\client\api\DocspublicApi$110.class
marvelApi\model\client\api\DocspublicApi$36.class
marvelApi\model\client\api\DocspublicApi$76.class
marvelApi\model\client\model\ComicPrice.class
marvelApi\model\client\api\DocspublicApi$5.class
marvelApi\model\client\api\DocspublicApi$80.class
marvelApi\model\client\JSON$OffsetDateTimeTypeAdapter.class
marvelApi\model\client\api\DocspublicApi$101.class
marvelApi\model\client\ApiClient$1.class
springboot\Application.class
marvelApi\model\client\api\DocspublicApi$20.class
marvelApi\model\client\api\DocspublicApi$50.class
marvelApi\model\client\api\DocspublicApi$70.class
marvelApi\model\client\model\StoryDataContainer.class
marvelApi\model\client\Configuration.class
marvelApi\model\client\api\DocspublicApi$43.class
marvelApi\model\client\auth\OAuth.class
marvelApi\model\client\api\DocspublicApi$38.class
marvelApi\model\client\api\DocspublicApi$104.class
marvelApi\model\client\api\DocspublicApi$98.class
marvelApi\model\client\api\DocspublicApi$18.class
marvelApi\model\client\api\DocspublicApi$23.class
marvelApi\model\client\api\DocspublicApi$46.class
marvelApi\model\client\model\CreatorList.class
marvelApi\model\client\api\DocspublicApi$89.class
marvelApi\model\client\model\EventSummary.class
marvelApi\model\client\api\DocspublicApi$66.class
marvelApi\model\client\model\Comic.class
marvelApi\model\client\api\DocspublicApi$103.class
marvelApi\model\client\api\DocspublicApi$69.class
marvelApi\model\client\api\DocspublicApi$39.class
marvelApi\model\client\api\DocspublicApi$72.class
marvelApi\model\client\model\Story.class
marvelApi\model\client\ProgressRequestBody$1.class
marvelApi\model\client\model\ComicDataWrapper.class
marvelApi\model\client\api\DocspublicApi$3.class
marvelApi\model\client\model\ComicDataContainer.class
marvelApi\model\client\StringUtil.class
marvelApi\model\client\api\DocspublicApi$22.class
marvelApi\model\client\api\DocspublicApi$95.class
marvelApi\model\client\api\DocspublicApi$15.class
marvelApi\model\client\api\DocspublicApi$45.class
marvelApi\model\client\api\DocspublicApi$68.class
marvelApi\model\client\model\EventDataWrapper.class
marvelApi\model\client\api\DocspublicApi$73.class
marvelApi\model\client\api\DocspublicApi$2.class
marvelApi\model\client\api\DocspublicApi$16.class
marvelApi\model\client\api\DocspublicApi$96.class
marvelApi\model\client\api\DocspublicApi$102.class
marvelApi\model\client\ApiClient$3.class
marvelApi\model\client\api\DocspublicApi$21.class
